../src/Registers.c:3:6:Initialize	8	static
../src/Registers.c:8:6:SetDir	16	static
../src/Registers.c:33:6:SetPin	16	static
../src/Registers.c:45:6:ClearPin	16	static
../src/Registers.c:58:6:SetNibble	16	static
